{
  "executionRoleArn": "arn:aws:iam::657600230790:role/ecsTaskExecutionRole",
  "family": "api-v5-stu3-prod",
  "networkMode": "awsvpc",
  "containerDefinitions": [
    {
      "name": "api-v5-stu3-prod",
      "image": "TBD",
      "cpu": 1024,
      "memoryReservation": 1000,
      "logConfiguration": {
        "logDriver": "awslogs",
        "options": {
          "awslogs-group": "/ecs/api-v5-stu3-prod",
          "awslogs-region": "us-east-1",
          "awslogs-stream-prefix": "ecs"
        }
      },
      "portMappings": [
        {
          "hostPort": 8076,
          "protocol": "tcp",
          "containerPort": 8076
        }
      ],
      "environment": [
      ],
      "essential": true,
      "mountPoints": [
        {
          "sourceVolume": "indexes",
          "containerPath": "/var/indexes"
        }
      ]
    }
  ],
  "requiresCompatibilities": [
    "FARGATE"
  ],
  "cpu": "1024",
  "memory": "2048",
  "volumes": [
    {
      "name": "indexes"
    }
  ]
}
